…
```r
# task: select Austria and Belgium
filter(gapminder, country %in% c("Austria", "Belgium"))
```

```
## # A tibble: 24 x 6
##    country continent  year lifeExp     pop gdpPercap
##    <fct>   <fct>     <int>   <dbl>   <int>     <dbl>
##  1 Austria Europe     1952    66.8 6927772     6137.
##  2 Austria Europe     1957    67.5 6965860     8843.
##  3 Austria Europe     1962    69.5 7129864    10751.
##  4 Austria Europe     1967    70.1 7376998    12835.
##  5 Austria Europe     1972    70.6 7544201    16662.
##  6 Austria Europe     1977    72.2 7568430    19749.
##  7 Austria Europe     1982    73.2 7574613    21597.
##  8 Austria Europe     1987    74.9 7578903    23688.
##  9 Austria Europe     1992    76.0 7914969    27042.
## 10 Austria Europe     1997    77.5 8069876    29096.
## # ... with 14 more rows
```
…
Let's output all unique pairs continent -> country with distinct() function:


```r
gapminder %>%
    select(country) %>%
    distinct() # its 142 records now
```

```
## # A tibble: 142 x 1
##    country    
##    <fct>      
##  1 Afghanistan
##  2 Albania    
##  3 Algeria    
##  4 Angola     
##  5 Argentina  
##  6 Australia  
##  7 Austria    
##  8 Bahrain    
##  9 Bangladesh 
## 10 Belgium    
## # ... with 132 more rows
```
…
```r
set.seed(2021) # example, seed = 2021
```

The sample_frac() function selects random fraction rows from a data frame. Let's select $1\%$ of data


```r
set.seed(2021) # output not changing, uncomment it 
gapminder %>% sample_frac(0.1)
```

```
## # A tibble: 170 x 6
##    country            continent  year lifeExp      pop gdpPercap
##    <fct>              <fct>     <int>   <dbl>    <int>     <dbl>
##  1 Libya              Africa     1962    47.8  1441863     6757.
##  2 Botswana           Africa     1997    52.6  1536536     8647.
##  3 Swaziland          Africa     1957    43.4   326741     1245.
##  4 Dominican Republic Americas   1997    70.0  7992357     3614.
##  5 Iraq               Asia       2002    57.0 24001816     4391.
##  6 Libya              Africa     1987    66.2  3799845    11771.
##  7 Montenegro         Europe     1967    67.2   501035     5908.
##  8 New Zealand        Oceania    1957    70.3  2229407    12247.
##  9 Bulgaria           Europe     2007    73.0  7322858    10681.
## 10 Malawi             Africa     1997    47.5 10419991      692.
## # ... with 160 more rows
```
…
