Розділ 5 5. Прийоми маніпулювання даними (з використанням можливостей бібліотеки dplyr) | Підготовка, обробка та ефективне використання даних для наукових досліджень
…
## # A tibble: 6 x 6
##   country continent  year lifeExp     pop gdpPercap
##   <fct>   <fct>     <int>   <dbl>   <int>     <dbl>
## 1 Austria Europe     1982    73.2 7574613    21597.
## 2 Austria Europe     1987    74.9 7578903    23688.
## 3 Austria Europe     1992    76.0 7914969    27042.
## 4 Austria Europe     1997    77.5 8069876    29096.
## 5 Austria Europe     2002    79.0 8148312    32418.
## 6 Austria Europe     2007    79.8 8199783    36126.

# task: select Austria and Belgium
filter(gapminder, country %in% c("Austria", "Belgium"))

## # A tibble: 24 x 6
##    country continent  year lifeExp     pop gdpPercap
##    <fct>   <fct>     <int>   <dbl>   <int>     <dbl>
##  1 Austria Europe     1952    66.8 6927772     6137.
##  2 Austria Europe     1957    67.5 6965860     8843.
##  3 Austria Europe     1962    69.5 7129864    10751.
##  4 Austria Europe     1967    70.1 7376998    12835.
##  5 Austria Europe     1972    70.6 7544201    16662.
##  6 Austria Europe     1977    72.2 7568430    19749.
##  7 Austria Europe     1982    73.2 7574613    21597.
##  8 Austria Europe     1987    74.9 7578903    23688.
##  9 Austria Europe     1992    76.0 7914969    27042.
## 10 Austria Europe     1997    77.5 8069876    29096.
## # ... with 14 more rows
…
Let’s output all unique pairs continent -> country with distinct() function:

gapminder %>%
    select(country) %>%
    distinct() # its 142 records now

## # A tibble: 142 x 1
##    country    
##    <fct>      
##  1 Afghanistan
##  2 Albania    
##  3 Algeria    
##  4 Angola     
##  5 Argentina  
##  6 Australia  
##  7 Austria    
##  8 Bahrain    
##  9 Bangladesh 
## 10 Belgium    
## # ... with 132 more rows
…
